%YAML 1.1
%TAG !u! tag:unity3d.com,2011:
--- !u!114 &11400000
MonoBehaviour:
  m_ObjectHideFlags: 0
  m_CorrespondingSourceObject: {fileID: 0}
  m_PrefabInstance: {fileID: 0}
  m_PrefabAsset: {fileID: 0}
  m_GameObject: {fileID: 0}
  m_Enabled: 1
  m_EditorHideFlags: 0
  m_Script: {fileID: 11500000, guid: 78b2425a2284af743826c689403a4924, type: 3}
  m_Name: F_Heal
  m_EditorClassIdentifier: 
  m_functionInfo: "// Made with Amplify Shader Editor\n// Available at the Unity Asset
    Store - http://u3d.as/y3X \n/*ASEBEGIN\nVersion=17000\n1;1;1918;1017;1464.482;728.5993;1.372501;True;True\nNode;AmplifyShaderEditor.TextureCoordinatesNode;3;-752.3461,-334.1913;Float;False;0;-1;2;3;2;SAMPLER2D;;False;0;FLOAT2;1,1;False;1;FLOAT2;0,0;False;5;FLOAT2;0;FLOAT;1;FLOAT;2;FLOAT;3;FLOAT;4\nNode;AmplifyShaderEditor.PannerNode;4;-496.0766,-258.4796;Float;False;3;0;FLOAT2;0,0;False;2;FLOAT2;0,0;False;1;FLOAT;1;False;1;FLOAT2;0\nNode;AmplifyShaderEditor.FresnelNode;9;-339.0313,279.5027;Float;True;Standard;WorldNormal;ViewDir;False;5;0;FLOAT3;0,0,1;False;4;FLOAT3;0,0,0;False;1;FLOAT;0;False;2;FLOAT;1;False;3;FLOAT;1.8;False;1;FLOAT;0\nNode;AmplifyShaderEditor.ColorNode;7;-472.9806,-78.36639;Float;False;Constant;_HealColor;HealColor;34;2;[HideInInspector];[HDR];Create;True;0;0;False;0;0.2522631,3.441591,0.6235944,1;1,1,1,1;True;0;5;COLOR;0;FLOAT;1;FLOAT;2;FLOAT;3;FLOAT;4\nNode;AmplifyShaderEditor.Vector2Node;2;-777.8453,-196.6334;Float;False;Constant;_HealScrollSpeed;HealScrollSpeed;33;1;[HideInInspector];Create;True;0;0;False;0;0.1,-0.1;0,0;0;3;FLOAT2;0;FLOAT;1;FLOAT;2\nNode;AmplifyShaderEditor.RangedFloatNode;5;-425.7184,131.3805;Float;False;Property;_HealIntensity;HealIntensity;0;1;[HideInInspector];Create;True;0;0;False;0;0;0;0;1;0;1;FLOAT;0\nNode;AmplifyShaderEditor.SimpleMultiplyOpNode;8;159.5047,-19.54386;Float;False;4;4;0;COLOR;0,0,0,0;False;1;COLOR;0,0,0,0;False;2;FLOAT;0;False;3;FLOAT;0;False;1;COLOR;0\nNode;AmplifyShaderEditor.SamplerNode;6;-279.8653,-299.4959;Float;True;Property;_HealTexture;HealTexture;1;1;[HideInInspector];Create;True;0;0;False;0;454a10b0208e91b4eb574798080f7ac1;454a10b0208e91b4eb574798080f7ac1;True;0;False;white;Auto;False;Object;-1;Auto;Texture2D;6;0;SAMPLER2D;;False;1;FLOAT2;0,0;False;2;FLOAT;0;False;3;FLOAT2;0,0;False;4;FLOAT2;0,0;False;5;FLOAT;1;False;5;COLOR;0;FLOAT;1;FLOAT;2;FLOAT;3;FLOAT;4\nNode;AmplifyShaderEditor.FunctionOutput;0;384.9376,-49.17754;Float;False;True;Output;0;False;1;0;COLOR;0,0,0,0;False;1;COLOR;0\nWireConnection;4;0;3;0\nWireConnection;4;2;2;0\nWireConnection;8;0;6;0\nWireConnection;8;1;7;0\nWireConnection;8;2;5;0\nWireConnection;8;3;9;0\nWireConnection;6;1;4;0\nWireConnection;0;0;8;0\nASEEND*/\n//CHKSM=C77E86531F7C7142B1D25919328AC110F1CF65BD"
  m_functionName: 
  m_description: 
  m_additionalIncludes:
    m_additionalIncludes: []
    m_outsideIncludes: []
  m_additionalPragmas:
    m_additionalPragmas: []
    m_outsidePragmas: []
  m_additionalDirectives:
    m_validData: 0
    m_isDirty: 0
    m_moduleName: ' Additional Directives'
    m_independentModule: 1
    m_additionalDirectives: []
    m_shaderFunctionDirectives: []
    m_nativeDirectives: []
    m_nativeDirectivesIndex: -1
    m_nativeDirectivesFoldout: 0
    m_directivesSaveItems: []
  m_nodeCategory: 3
  m_customNodeCategory: 
  m_previewPosition: 0
  m_hidden: 0
