%YAML 1.1
%TAG !u! tag:unity3d.com,2011:
--- !u!114 &11400000
MonoBehaviour:
  m_ObjectHideFlags: 0
  m_CorrespondingSourceObject: {fileID: 0}
  m_PrefabInstance: {fileID: 0}
  m_PrefabAsset: {fileID: 0}
  m_GameObject: {fileID: 0}
  m_Enabled: 1
  m_EditorHideFlags: 0
  m_Script: {fileID: 11500000, guid: 78b2425a2284af743826c689403a4924, type: 3}
  m_Name: F_PetrifyEffect
  m_EditorClassIdentifier: 
  m_functionInfo: "// Made with Amplify Shader Editor\n// Available at the Unity Asset
    Store - http://u3d.as/y3X \n/*ASEBEGIN\nVersion=17000\n0;1;1906;1011;3094.77;758.8526;1.495602;True;True\nNode;AmplifyShaderEditor.TFHCRemapNode;12;-942.0214,-619.2516;Float;True;5;0;FLOAT;0;False;1;FLOAT;0;False;2;FLOAT;1;False;3;FLOAT;0;False;4;FLOAT;1;False;1;FLOAT;0\nNode;AmplifyShaderEditor.RangedFloatNode;27;-1233.949,-351.3099;Float;False;Property;_PetrifyMinDistance;PetrifyMinDistance;6;1;[HideInInspector];Create;True;0;0;False;0;-1;-1;0;0;0;1;FLOAT;0\nNode;AmplifyShaderEditor.RangedFloatNode;2;-1410.184,146.0691;Float;False;Property;_PetrifyIntensity;PetrifyIntensity;4;1;[HideInInspector];Create;True;0;0;False;0;0;0;0;1;0;1;FLOAT;0\nNode;AmplifyShaderEditor.RangedFloatNode;24;-1407.655,17.66058;Float;False;Property;_PetrifyMaxDistance;PetrifyMaxDistance;5;1;[HideInInspector];Create;True;0;0;False;0;1;0;0;0;0;1;FLOAT;0\nNode;AmplifyShaderEditor.ColorNode;28;-312.7898,-59.07362;Float;False;Constant;_PetrifyColor;PetrifyColor;7;1;[HDR];Create;True;0;0;False;0;0.7735849,0.7735849,0.7735849,1;0.7735849,0.7735849,0.7735849,1;True;0;5;COLOR;0;FLOAT;1;FLOAT;2;FLOAT;3;FLOAT;4\nNode;AmplifyShaderEditor.RangedFloatNode;48;-18.41986,475.3073;Float;False;Constant;_PetrifyRoughness;PetrifyRoughness;8;0;Create;True;0;0;False;0;0.5;0;0;0;0;1;FLOAT;0\nNode;AmplifyShaderEditor.RangedFloatNode;47;-23.41986,390.3073;Float;False;Constant;_PetrifyMetallic;PetrifyMetallic;8;0;Create;True;0;0;False;0;0;0;0;0;0;1;FLOAT;0\nNode;AmplifyShaderEditor.SamplerNode;3;-302.2,157.9;Float;True;Property;_PetrifyTexture;PetrifyTexture;0;1;[HideInInspector];Create;True;0;0;False;0;3eaff766384183d408a76196fdc505f1;3eaff766384183d408a76196fdc505f1;True;0;False;white;Auto;False;Object;-1;Auto;Texture2D;6;0;SAMPLER2D;;False;1;FLOAT2;0,0;False;2;FLOAT;0;False;3;FLOAT2;0,0;False;4;FLOAT2;0,0;False;5;FLOAT;1;False;5;COLOR;0;FLOAT;1;FLOAT;2;FLOAT;3;FLOAT;4\nNode;AmplifyShaderEditor.RangedFloatNode;13;-1333.622,-509.3516;Float;False;Constant;_PetrifyEroderRemap;PetrifyEroderRemap;5;0;Create;True;0;0;False;0;1;0;0;1;0;1;FLOAT;0\nNode;AmplifyShaderEditor.SimpleAddOpNode;25;-1050.655,-116.3394;Float;False;2;2;0;FLOAT;0;False;1;FLOAT;0;False;1;FLOAT;0\nNode;AmplifyShaderEditor.ToggleSwitchNode;9;-2907.502,-254.8354;Float;True;Property;_PetrifyHorizontal;PetrifyHorizontal;2;0;Create;True;0;0;False;0;0;2;0;FLOAT;0;False;1;FLOAT;0;False;1;FLOAT;0\nNode;AmplifyShaderEditor.SamplerNode;11;-1353.821,-706.0516;Float;True;Property;_PetrifyEroder;PetrifyEroder;1;1;[HideInInspector];Create;True;0;0;False;0;None;None;True;0;False;white;Auto;False;Object;-1;Auto;Texture2D;6;0;SAMPLER2D;;False;1;FLOAT2;0,0;False;2;FLOAT;0;False;3;FLOAT2;0,0;False;4;FLOAT2;0,0;False;5;FLOAT;1;False;5;COLOR;0;FLOAT;1;FLOAT;2;FLOAT;3;FLOAT;4\nNode;AmplifyShaderEditor.SimpleMultiplyOpNode;29;361.2193,-152.8043;Float;False;2;2;0;COLOR;0,0,0,0;False;1;COLOR;0,0,0,0;False;1;COLOR;0\nNode;AmplifyShaderEditor.PosVertexDataNode;8;-3198.502,-255.8354;Float;False;0;0;5;FLOAT3;0;FLOAT;1;FLOAT;2;FLOAT;3;FLOAT;4\nNode;AmplifyShaderEditor.LerpOp;23;-858.5356,-154.3983;Float;True;3;0;FLOAT;-2;False;1;FLOAT;0;False;2;FLOAT;0;False;1;FLOAT;0\nNode;AmplifyShaderEditor.SimpleAddOpNode;26;-571.5737,-317.0961;Float;True;2;2;0;FLOAT;0;False;1;FLOAT;0;False;1;FLOAT;0\nNode;AmplifyShaderEditor.SimpleDivideOpNode;20;-2511.801,-231.2409;Float;False;2;0;FLOAT;0;False;1;FLOAT;2;False;1;FLOAT;0\nNode;AmplifyShaderEditor.ToggleSwitchNode;14;-1994.802,-234.2409;Float;True;Property;_PetrifyInvertDirection;PetrifyInvertDirection;3;0;Create;True;0;0;False;0;0;2;0;FLOAT;0;False;1;FLOAT;0;False;1;FLOAT;0\nNode;AmplifyShaderEditor.SimpleAddOpNode;21;-2351.801,-232.2409;Float;False;2;2;0;FLOAT;0;False;1;FLOAT;0.5;False;1;FLOAT;0\nNode;AmplifyShaderEditor.SimpleMultiplyOpNode;40;-1737.831,-163.6482;Float;True;2;2;0;FLOAT;0;False;1;FLOAT;0;False;1;FLOAT;0\nNode;AmplifyShaderEditor.SaturateNode;32;-89.19021,-292.981;Float;False;1;0;FLOAT;0;False;1;FLOAT;0\nNode;AmplifyShaderEditor.OneMinusNode;22;-2181.312,-168.8137;Float;False;1;0;FLOAT;0;False;1;FLOAT;0\nNode;AmplifyShaderEditor.RangedFloatNode;38;-2014.226,17.225;Float;False;Property;_PetrifyMultiply;PetrifyMultiply;7;1;[HideInInspector];Create;True;0;0;False;0;1;0;0;0;0;1;FLOAT;0\nNode;AmplifyShaderEditor.FunctionOutput;44;205.6699,381.8702;Float;False;False;PetrifyMetallic;0;False;1;0;FLOAT;0;False;1;FLOAT;0\nNode;AmplifyShaderEditor.FunctionOutput;45;354.6699,458.8702;Float;False;False;PetrifyRoughness;1;False;1;0;FLOAT;0;False;1;FLOAT;0\nNode;AmplifyShaderEditor.FunctionOutput;31;528.094,-336.9518;Float;False;False;PetrifyAmount;2;False;1;0;FLOAT;0;False;1;FLOAT;0\nNode;AmplifyShaderEditor.FunctionOutput;0;554.8021,-167.7804;Float;True;True;PetrifyTexture;3;False;1;0;COLOR;0,0,0,0;False;1;COLOR;0\nWireConnection;12;0;11;1\nWireConnection;12;2;13;0\nWireConnection;25;0;40;0\nWireConnection;25;1;24;0\nWireConnection;9;0;8;2\nWireConnection;9;1;8;1\nWireConnection;29;0;28;0\nWireConnection;29;1;3;0\nWireConnection;23;0;27;0\nWireConnection;23;1;25;0\nWireConnection;23;2;2;0\nWireConnection;26;0;12;0\nWireConnection;26;1;23;0\nWireConnection;20;0;9;0\nWireConnection;14;0;21;0\nWireConnection;14;1;22;0\nWireConnection;21;0;20;0\nWireConnection;40;0;14;0\nWireConnection;40;1;38;0\nWireConnection;32;0;26;0\nWireConnection;22;0;21;0\nWireConnection;44;0;47;0\nWireConnection;45;0;48;0\nWireConnection;31;0;32;0\nWireConnection;0;0;29;0\nASEEND*/\n//CHKSM=85E4E382AB2E0709E3D0A2F1A6984A8BD69C1663"
  m_functionName: 
  m_description: 
  m_additionalIncludes:
    m_additionalIncludes: []
    m_outsideIncludes: []
  m_additionalPragmas:
    m_additionalPragmas: []
    m_outsidePragmas: []
  m_additionalDirectives:
    m_validData: 0
    m_isDirty: 0
    m_moduleName: ' Additional Directives'
    m_independentModule: 1
    m_additionalDirectives: []
    m_shaderFunctionDirectives: []
    m_nativeDirectives: []
    m_nativeDirectivesIndex: -1
    m_nativeDirectivesFoldout: 0
    m_directivesSaveItems: []
  m_nodeCategory: 3
  m_customNodeCategory: 
  m_previewPosition: 0
  m_hidden: 0
