%YAML 1.1
%TAG !u! tag:unity3d.com,2011:
--- !u!114 &11400000
MonoBehaviour:
  m_ObjectHideFlags: 0
  m_CorrespondingSourceObject: {fileID: 0}
  m_PrefabInstance: {fileID: 0}
  m_PrefabAsset: {fileID: 0}
  m_GameObject: {fileID: 0}
  m_Enabled: 1
  m_EditorHideFlags: 0
  m_Script: {fileID: 11500000, guid: 78b2425a2284af743826c689403a4924, type: 3}
  m_Name: F_Selected
  m_EditorClassIdentifier: 
  m_functionInfo: "// Made with Amplify Shader Editor\n// Available at the Unity Asset
    Store - http://u3d.as/y3X \n/*ASEBEGIN\nVersion=15700\n1;1;1918;1017;1953.522;1617.901;1.05583;True;False\nNode;AmplifyShaderEditor.SimpleTimeNode;1;-1663.526,-418.3387;Float;False;1;0;FLOAT;1;False;1;FLOAT;0\nNode;AmplifyShaderEditor.RangedFloatNode;2;-1598.526,-202.3385;Float;False;Constant;_Float0;Float
    0;2;0;Create;True;0;0;False;0;5;0;0;0;0;1;FLOAT;0\nNode;AmplifyShaderEditor.SimpleMultiplyOpNode;3;-1428.526,-321.3386;Float;False;2;2;0;FLOAT;0;False;1;FLOAT;0;False;1;FLOAT;0\nNode;AmplifyShaderEditor.SinOpNode;4;-1268.526,-386.3386;Float;False;1;0;FLOAT;0;False;1;FLOAT;0\nNode;AmplifyShaderEditor.TFHCRemapNode;5;-1147.048,-253.7743;Float;False;5;0;FLOAT;0;False;1;FLOAT;0;False;2;FLOAT;1;False;3;FLOAT;5;False;4;FLOAT;2;False;1;FLOAT;0\nNode;AmplifyShaderEditor.FresnelNode;7;-919.6829,-397.1394;Float;False;Standard;TangentNormal;ViewDir;True;5;0;FLOAT3;0,0,1;False;4;FLOAT3;0,0,0;False;1;FLOAT;0;False;2;FLOAT;1;False;3;FLOAT;2.14;False;1;FLOAT;0\nNode;AmplifyShaderEditor.SimpleAddOpNode;8;-584.2927,-373.4745;Float;True;2;2;0;FLOAT;0;False;1;COLOR;0,0,0,0;False;1;COLOR;0\nNode;AmplifyShaderEditor.SimpleMultiplyOpNode;10;-400.7998,10.99505;Float;True;2;2;0;COLOR;0,0,0,0;False;1;COLOR;0,0,0,0;False;1;COLOR;0\nNode;AmplifyShaderEditor.ToggleSwitchNode;11;-81.79961,-94.00488;Float;True;Property;_Selected;_Selected;0;0;Create;True;0;0;False;0;0;2;0;COLOR;0,0,0,0;False;1;COLOR;0,0,0,0;False;1;COLOR;0\nNode;AmplifyShaderEditor.SimpleAddOpNode;6;-837.1367,-816.562;Float;True;2;2;0;COLOR;0,0,0,0;False;1;COLOR;0,0,0,0;False;1;COLOR;0\nNode;AmplifyShaderEditor.ColorNode;9;-758.7996,28.99504;Float;False;Constant;_Color0;Color
    0;13;1;[HDR];Create;True;0;0;False;0;23.96863,1.505882,0,0;95.87451,6.02353,0,0;0;5;COLOR;0;FLOAT;1;FLOAT;2;FLOAT;3;FLOAT;4\nNode;AmplifyShaderEditor.FunctionInput;12;-1190.22,-1188.152;Float;False;Input;5;0;False;1;0;COLOR;0,0,0,0;False;1;COLOR;0\nNode;AmplifyShaderEditor.FunctionOutput;0;494.1142,-347.7497;Float;False;True;Output;0;False;1;0;COLOR;0,0,0,0;False;1;COLOR;0\nWireConnection;3;0;1;0\nWireConnection;3;1;2;0\nWireConnection;4;0;3;0\nWireConnection;5;0;4;0\nWireConnection;7;3;5;0\nWireConnection;8;0;7;0\nWireConnection;8;1;6;0\nWireConnection;10;0;8;0\nWireConnection;10;1;9;0\nWireConnection;11;0;6;0\nWireConnection;11;1;10;0\nWireConnection;6;0;12;0\nWireConnection;0;0;11;0\nASEEND*/\n//CHKSM=D5671C2EEB7790FF250459235CC537C48D1825EF"
  m_functionName: 
  m_description: 
  m_additionalIncludes:
    m_additionalIncludes: []
    m_outsideIncludes: []
  m_additionalPragmas:
    m_additionalPragmas: []
    m_outsidePragmas: []
  m_additionalDirectives:
    m_validData: 0
    m_isDirty: 0
    m_moduleName: ' Additional Directives'
    m_independentModule: 1
    m_additionalDirectives: []
    m_shaderFunctionDirectives: []
    m_nativeDirectives: []
    m_nativeDirectivesIndex: -1
    m_nativeDirectivesFoldout: 0
    m_directivesSaveItems: []
  m_nodeCategory: 3
  m_customNodeCategory: 
  m_previewPosition: 0
  m_hidden: 0
