%YAML 1.1
%TAG !u! tag:unity3d.com,2011:
--- !u!114 &11400000
MonoBehaviour:
  m_ObjectHideFlags: 0
  m_CorrespondingSourceObject: {fileID: 0}
  m_PrefabInstance: {fileID: 0}
  m_PrefabAsset: {fileID: 0}
  m_GameObject: {fileID: 0}
  m_Enabled: 1
  m_EditorHideFlags: 0
  m_Script: {fileID: 11500000, guid: 78b2425a2284af743826c689403a4924, type: 3}
  m_Name: F_Slow
  m_EditorClassIdentifier: 
  m_functionInfo: "// Made with Amplify Shader Editor\n// Available at the Unity Asset
    Store - http://u3d.as/y3X \n/*ASEBEGIN\nVersion=17000\n1928;15;1906;1004;2047.216;168.9908;1.125178;True;True\nNode;AmplifyShaderEditor.SimpleMultiplyOpNode;13;-242.0332,220.9411;Float;False;4;4;0;COLOR;0,0,0,0;False;1;FLOAT;0;False;2;COLOR;0,0,0,0;False;3;FLOAT;0;False;1;COLOR;0\nNode;AmplifyShaderEditor.RangedFloatNode;17;-886.9795,472.9725;Float;False;Property;_SlowIntensity;SlowIntensity;0;0;Create;True;0;0;False;0;0;0;0;1;0;1;FLOAT;0\nNode;AmplifyShaderEditor.ColorNode;14;-656.2332,-118.6587;Float;False;Constant;_SlowColor;SlowColor;0;1;[HDR];Create;True;0;0;False;0;1.304119,1.17439,0.8329974,0;0,0,0,0;True;0;5;COLOR;0;FLOAT;1;FLOAT;2;FLOAT;3;FLOAT;4\nNode;AmplifyShaderEditor.FresnelNode;2;-1005.735,-18.53562;Float;True;Standard;WorldNormal;ViewDir;False;5;0;FLOAT3;0,0,1;False;4;FLOAT3;0,0,0;False;1;FLOAT;0;False;2;FLOAT;1;False;3;FLOAT;1;False;1;FLOAT;0\nNode;AmplifyShaderEditor.Vector2Node;21;-1411.49,2.598986;Float;False;Constant;_Scale;Scale;2;0;Create;True;0;0;False;0;2,0.3;0,0;0;3;FLOAT2;0;FLOAT;1;FLOAT;2\nNode;AmplifyShaderEditor.SamplerNode;5;-836.8932,222.3959;Float;True;Property;_SlowTexture;SlowTexture;1;0;Create;True;0;0;False;0;ee53b5120d30d45448dc8ee1724563cf;32921ef598e810447b15331096ddec6c;True;0;False;white;Auto;False;Object;-1;Auto;Texture2D;6;0;SAMPLER2D;;False;1;FLOAT2;0,0;False;2;FLOAT;0;False;3;FLOAT2;0,0;False;4;FLOAT2;0,0;False;5;FLOAT;1;False;5;COLOR;0;FLOAT;1;FLOAT;2;FLOAT;3;FLOAT;4\nNode;AmplifyShaderEditor.PannerNode;6;-1091.293,240.0959;Float;False;3;0;FLOAT2;0,0;False;2;FLOAT2;0,0;False;1;FLOAT;1;False;1;FLOAT2;0\nNode;AmplifyShaderEditor.SimpleMultiplyOpNode;22;-1224.711,196.1296;Float;False;2;2;0;FLOAT2;0,0;False;1;FLOAT2;0,0;False;1;FLOAT2;0\nNode;AmplifyShaderEditor.Vector2Node;7;-1370.37,333.7994;Float;False;Constant;_SlowScrollSpeed;SlowScrollSpeed;1;0;Create;True;0;0;False;0;0,0.2;0,0;0;3;FLOAT2;0;FLOAT;1;FLOAT;2\nNode;AmplifyShaderEditor.PosVertexDataNode;9;-1596.894,149.744;Float;False;0;0;5;FLOAT3;0;FLOAT;1;FLOAT;2;FLOAT;3;FLOAT;4\nNode;AmplifyShaderEditor.DynamicAppendNode;23;-1392.363,197.8173;Float;False;FLOAT2;4;0;FLOAT;0;False;1;FLOAT;0;False;2;FLOAT;0;False;3;FLOAT;0;False;1;FLOAT2;0\nNode;AmplifyShaderEditor.FunctionOutput;0;-19.19997,225.3;Float;False;True;Output;0;False;1;0;COLOR;0,0,0,0;False;1;COLOR;0\nWireConnection;13;0;14;0\nWireConnection;13;1;2;0\nWireConnection;13;2;5;0\nWireConnection;13;3;17;0\nWireConnection;5;1;6;0\nWireConnection;6;0;22;0\nWireConnection;6;2;7;0\nWireConnection;22;0;21;0\nWireConnection;22;1;23;0\nWireConnection;23;0;9;1\nWireConnection;23;1;9;3\nWireConnection;0;0;13;0\nASEEND*/\n//CHKSM=5EB4BBBAA0D38DAA7EB7DE3A34B1B3D43ED363B6"
  m_functionName: 
  m_description: 
  m_additionalIncludes:
    m_additionalIncludes: []
    m_outsideIncludes: []
  m_additionalPragmas:
    m_additionalPragmas: []
    m_outsidePragmas: []
  m_additionalDirectives:
    m_validData: 0
    m_isDirty: 0
    m_moduleName: ' Additional Directives'
    m_independentModule: 1
    m_additionalDirectives: []
    m_shaderFunctionDirectives: []
    m_nativeDirectives: []
    m_nativeDirectivesIndex: -1
    m_nativeDirectivesFoldout: 0
    m_directivesSaveItems: []
  m_nodeCategory: 3
  m_customNodeCategory: 
  m_previewPosition: 0
  m_hidden: 0
